{
	"Actor": 
	{
		"types": ["player", "npc"],
		"templates": {
			"background": {
				"biography": "",
				"hairColor": "blue"
			},
			"description": {
				"gender": "Kampfhubschrauber",
				"look": "Jung und Dünn, hoch gewachsen",
				"age": {
					"value": 30,
					"min": 0,
					"max": 9999
				},
				"race": "Mensch",
				"height_cm": {
					"value": 180,
					"min": 0,
					"max": 1000
				}
			},
			"t_resources": {
				"resources": {
					"health": {
						"min": 0,
						"value": 4,
						"max": 4,
            "label": "Health"
					},
					"initiative": {
						"min": 0,
						"value": 4,
						"max": 4,
            "label": "Initiative"
					},
          "luck": {
            "value": 4,
            "max": 4,
            "min": 0,
            "label": "Glück"
          }
				}
			},
			"t_attributes": {
				"attributes":{
					"STR": {
						"min": 1,
						"value": 1,
						"base": 1,
						"max": 10,
						"label": "Stärke",
						"modifier": []
					},
					"RES": {
						"min": 1,
						"value": 1,
						"base": 1,
						"max": 10,
						"label": "Resistenz",
						"modifier": []
					},
					"REF": {
						"min": 1,
						"value": 1,
						"base": 1,
						"max": 10,
						"label": "Reflex",
						"modifier": []
					},
					"GES": {
						"min": 1,
						"value": 1,
						"base": 1,
						"max": 10,
						"label": "Geschick",
						"modifier": []
					},
					"AUD": {
						"min": 1,
						"value": 1,
						"base": 1,
						"max": 10,
						"label": "Ausdauer",
						"modifier": []
					},
					"INT": {
						"min": 1,
						"value": 1,
						"base": 1,
						"max": 10,
						"label": "Inteligenz",
						"modifier": []
					},
					"WIL": {
						"min": 1,
						"value": 1,
						"base": 1,
						"max": 10,
						"label": "Willenskraft",
						"modifier": []
					},
					"PEZ": {
						"min": 1,
						"value": 1,
						"base": 1,
						"max": 10,
						"label": "Perzipieren",
						"modifier": []
					},
					"AUR": {
						"min": 1,
						"value": 1,
						"base": 1,
						"max": 10,
						"label": "Aura",
						"modifier": []
					},
					"CHA": {
						"min": 1,
						"value": 1,
						"base": 1,
						"max": 10,
						"label": "Charisma",
						"modifier": []
					}
				}
			}
		},
		"player": {
			"templates": ["background", "t_resources", "t_attributes", "description"],
			"dna": 0,
			"clones": 0,
			"skillPoints": 0,
			"maxSkillCount": 14,
			"maxSpellCount": 4
		},
		"npc": {
			"templates": ["t_resources", "t_attributes", "description"],
			"maxSkillCount": 4,
			"maxSpellCount": 1,
			"resources": {
				"attackDamage": {
				"min": 1,
				"value": 2,
				"max": 20,
				"label": "Attack Damage"
				},
				"attackChance": {
				"min": 1,
				"value": 2,
				"max": 20,
				"label": "Attack Chance"
				},
				"spellAttackDamage": {
				"min": 1,
				"value": 2,
				"max": 20,
				"label": "Spell Attack Damage"
				},
				"spellAttackChance": {
				"min": 1,
				"value": 2,
				"max": 20,
				"label": "Spell Attack Chance"
				}
			}
		}
	},
	"Item": {
		"types": ["weapon", "spell", "armor", "consumeable", "item", "supportweapon"],
		"templates": {
			"rarity": {
				"rarity": "Common",
				"price": 20
			},
			"description": {
				"description": "Beschreibung"
			},
			"bonusAttribute":  {
				"bonus_attribute": "CHA",
				"bonus":  {
					"min": 0,
					"value": 0,
					"max": 10
				}
			},
			"weight": {
				"quantity": 1,
				"weight": 1
			}
		},
		"weapon": {
			"templates": ["rarity", "description", "bonusAttribute", "weight"],
			"damage_lethal": 1,
			"damage_stun": 1,
			"stufe": 1,
			"two_handed": false,
			"attribute": "GES",
			"is_shield": false,
			"is_gun": false,
			"is_deadly": true
		},
		"supportweapon": {
			"templates": ["rarity", "description", "bonusAttribute", "weight"],
			"damage_lethal": 1,
			"damage_stun": 1,
			"stufe": 1,
			"attribute": "GES",
			"is_deadly": true
		},
		"spell": {
			"templates": ["rarity", "description"],
			"level": {
				"value": 1,
				"min": 1,
				"max": 10
			},
			"power": {
				"value": 1,
				"min": 1,
				"max": 10
			},
			"attribute": "AUR"
		},
		"armor": {
			"templates": ["rarity", "description", "bonusAttribute", "weight"],
			"armor": {
				"value": 1,
				"min": 0,
				"max": 10
			},
			"attribute": "RES",
			"slot": "NONE",
			"stufe": 1
		},
		"consumeable": {
			"templates": ["rarity", "description", "bonusAttribute", "weight"],
			"attribute": "GES",
			"amount": {
				"min": 0,
				"value": 1
			}
		},
		"item": {
			"templates": ["rarity", "description", "weight"]
		}
	}
}